2019-09-25 09:31:44.9236 INFO Hey this class sent this data and this info like ermergerd player name was bob ross
2019-09-25 09:31:44.9838 DEBUG Traditional debug statement should only be used in testing
2019-09-25 09:31:44.9975 WARN Warning - hey i see you're doing this in this way but that might not be the best way. Or some other warning
2019-09-25 09:31:44.9975 ERROR oh shit somethings fucking broken. Fix it fix it fix it fix it!
